{
  "globalDependencies": {
    "es6-collections": "registry:dt/es6-collections#0.5.1+20160316155526",
    "es6-promise": "registry:dt/es6-promise#0.0.0+20160614011821",
    "express": "registry:dt/express#4.0.0+20160708185218",
    "express-serve-static-core": "registry:dt/express-serve-static-core#4.0.0+20161012061536",
    "mime": "registry:dt/mime#0.0.0+20160316155526",
    "node": "registry:dt/node#6.0.0+20161019125345",
    "serve-static": "registry:dt/serve-static#0.0.0+20160606155157"
  }
}
