{
  "name": "PGQ_Habitant",
  "description": "",
  "base": "PersistedModel",
  "strict": false,
  "idInjection": false,
  "options": {
    "validateUpsert": true
  },
  "properties": {
    "created": {
      "type": "date"
    },
    "updated": {
      "type": "date"
    },
    "status": {
      "type": "boolean",
      "default": false
    },
    "locked": {
      "type": "boolean",
      "default": true
    },
    "fkUserId": {
      "type": "string"
    },
    "fkMembersCommunityId": {
      "type": "string"
    }
  },
  "validations": [],
  "relations": {
    "membersCommunity": {
      "type": "belongsTo",
      "model": "PGQ_MembersCommunity",
      "foreignKey": "fkMembersCommunityId"
    },
    "listCodeQRHabitant": {
      "type": "hasMany",
      "model": "PGQ_QRCode",
      "foreignKey": "fkHabitantId"
    },
    "userHabitant": {
      "type": "belongsTo",
      "model": "PGQ_User",
      "foreignKey": "fkUserId"
    }
  },
  "acls": [
    {
      "accessType": "*",
      "principalType": "ROLE",
      "principalId": "$everyone",
      "permission": "DENY"
    },
    {
      "accessType": "EXECUTE",
      "principalType": "ROLE",
      "principalId": "$authenticated",
      "permission": "ALLOW"
    }
  ],
  "methods": {}
}
