{
  "name": "PGQ_Msg",
  "description": "This model saves all the messages between the users",
  "base": "PersistedModel",
  "strict": false,
  "idInjection": false,
  "options": {
    "validateUpsert": true
  },
  "properties": {
    "text": {
      "type": "string",
      "required": true
    },
    "created": {
      "type": "date",
      "required": true
    },
    "updated": {
      "type": "date"
    },
    "status": {
      "type": "boolean",
      "required": true,
      "default": true
    },
    "fkUserId": {
      "type": "string",
      "required": true,
      "index": true
    }
  },
  "validations": [],
  "relations": {
    "pGQUser": {
      "type": "belongsTo",
      "model": "PGQ_User",
      "foreignKey": "fkUserId"
    }
  },
  "acls": [
    {
      "accessType": "*",
      "principalType": "ROLE",
      "principalId": "$everyone",
      "permission": "DENY"
    },
    {
      "accessType": "EXECUTE",
      "principalType": "ROLE",
      "principalId": "$authenticated",
      "permission": "ALLOW"
    }
  ],
  "methods": {}
}
